%TF.GenerationSoftware,KiCad,Pcbnew,6.0.0*%
%TF.CreationDate,2022-01-08T16:14:39+01:00*%
%TF.ProjectId,line-tracking-sensor,6c696e65-2d74-4726-9163-6b696e672d73,0.1.0*%
%TF.SameCoordinates,Original*%
%TF.FileFunction,Legend,Bot*%
%TF.FilePolarity,Positive*%
%FSLAX46Y46*%
G04 Gerber Fmt 4.6, Leading zero omitted, Abs format (unit mm)*
G04 Created by KiCad (PCBNEW 6.0.0) date 2022-01-08 16:14:39*
%MOMM*%
%LPD*%
G01*
G04 APERTURE LIST*
%TA.AperFunction,Profile*%
%ADD10C,0.100000*%
%TD*%
G04 APERTURE END LIST*
D10*
X48577500Y-69850000D02*
X100012500Y-69850000D01*
X100012500Y-69850000D02*
X100012500Y-113030000D01*
X100012500Y-113030000D02*
X48577500Y-113030000D01*
X48577500Y-113030000D02*
X48577500Y-69850000D01*
M02*
