%TF.GenerationSoftware,KiCad,Pcbnew,6.0.0*%
%TF.CreationDate,2022-01-08T16:14:39+01:00*%
%TF.ProjectId,line-tracking-sensor,6c696e65-2d74-4726-9163-6b696e672d73,0.1.0*%
%TF.SameCoordinates,Original*%
%TF.FileFunction,Soldermask,Top*%
%TF.FilePolarity,Negative*%
%FSLAX46Y46*%
G04 Gerber Fmt 4.6, Leading zero omitted, Abs format (unit mm)*
G04 Created by KiCad (PCBNEW 6.0.0) date 2022-01-08 16:14:39*
%MOMM*%
%LPD*%
G01*
G04 APERTURE LIST*
G04 Aperture macros list*
%AMRoundRect*
0 Rectangle with rounded corners*
0 $1 Rounding radius*
0 $2 $3 $4 $5 $6 $7 $8 $9 X,Y pos of 4 corners*
0 Add a 4 corners polygon primitive as box body*
4,1,4,$2,$3,$4,$5,$6,$7,$8,$9,$2,$3,0*
0 Add four circle primitives for the rounded corners*
1,1,$1+$1,$2,$3*
1,1,$1+$1,$4,$5*
1,1,$1+$1,$6,$7*
1,1,$1+$1,$8,$9*
0 Add four rect primitives between the rounded corners*
20,1,$1+$1,$2,$3,$4,$5,0*
20,1,$1+$1,$4,$5,$6,$7,0*
20,1,$1+$1,$6,$7,$8,$9,0*
20,1,$1+$1,$8,$9,$2,$3,0*%
G04 Aperture macros list end*
%TA.AperFunction,Profile*%
%ADD10C,0.100000*%
%TD*%
%ADD11C,1.600000*%
%ADD12RoundRect,0.249600X0.550400X0.550400X-0.550400X0.550400X-0.550400X-0.550400X0.550400X-0.550400X0*%
%ADD13C,3.000000*%
%ADD14C,1.500000*%
%ADD15R,1.600000X1.600000*%
%ADD16O,1.600000X1.600000*%
%ADD17C,2.000000*%
%ADD18RoundRect,0.250000X0.845000X-0.620000X0.845000X0.620000X-0.845000X0.620000X-0.845000X-0.620000X0*%
%ADD19O,2.190000X1.740000*%
G04 APERTURE END LIST*
D10*
X48577500Y-69850000D02*
X100012500Y-69850000D01*
X100012500Y-69850000D02*
X100012500Y-113030000D01*
X100012500Y-113030000D02*
X48577500Y-113030000D01*
X48577500Y-113030000D02*
X48577500Y-69850000D01*
D11*
%TO.C,U2*%
X89722500Y-106045000D03*
X89722500Y-103505000D03*
X92522500Y-103505000D03*
D12*
X92522500Y-106045000D03*
%TD*%
D13*
%TO.C,REF3*%
X53022500Y-74295000D03*
%TD*%
%TO.C,REF4*%
X53022500Y-108585000D03*
%TD*%
%TO.C,REF5*%
X79692500Y-99695000D03*
%TD*%
D14*
%TO.C,Y1*%
X61912500Y-105955000D03*
X61912500Y-101075000D03*
%TD*%
D12*
%TO.C,U4*%
X92522500Y-79375000D03*
D11*
X92522500Y-76835000D03*
X89722500Y-76835000D03*
X89722500Y-79375000D03*
%TD*%
%TO.C,U3*%
X89722500Y-92740000D03*
X89722500Y-90200000D03*
X92522500Y-90200000D03*
D12*
X92522500Y-92740000D03*
%TD*%
D15*
%TO.C,U1*%
X66587500Y-74915000D03*
D16*
X74207500Y-107935000D03*
X66587500Y-77455000D03*
X74207500Y-105395000D03*
X66587500Y-79995000D03*
X74207500Y-102855000D03*
X66587500Y-82535000D03*
X74207500Y-100315000D03*
X66587500Y-85075000D03*
X74207500Y-97775000D03*
X66587500Y-87615000D03*
X74207500Y-95235000D03*
X66587500Y-90155000D03*
X74207500Y-92695000D03*
X66587500Y-92695000D03*
X74207500Y-90155000D03*
X66587500Y-95235000D03*
X74207500Y-87615000D03*
X66587500Y-97775000D03*
X74207500Y-85075000D03*
X66587500Y-100315000D03*
X74207500Y-82535000D03*
X66587500Y-102855000D03*
X74207500Y-79995000D03*
X66587500Y-105395000D03*
X74207500Y-77455000D03*
X66587500Y-107935000D03*
X74207500Y-74915000D03*
%TD*%
D17*
%TO.C,SW1*%
X62892500Y-81355000D03*
X58392500Y-81355000D03*
X62892500Y-74855000D03*
X58392500Y-74855000D03*
%TD*%
D11*
%TO.C,R7*%
X96837500Y-73025000D03*
D16*
X96837500Y-83185000D03*
%TD*%
D11*
%TO.C,R6*%
X85407500Y-73025000D03*
D16*
X85407500Y-83185000D03*
%TD*%
D11*
%TO.C,R5*%
X96837500Y-86360000D03*
D16*
X96837500Y-96520000D03*
%TD*%
D11*
%TO.C,R4*%
X85407500Y-86360000D03*
D16*
X85407500Y-96520000D03*
%TD*%
D11*
%TO.C,R3*%
X96837500Y-109855000D03*
D16*
X96837500Y-99695000D03*
%TD*%
D11*
%TO.C,R2*%
X85407500Y-109855000D03*
D16*
X85407500Y-99695000D03*
%TD*%
D11*
%TO.C,R1*%
X58737500Y-95250000D03*
D16*
X58737500Y-85090000D03*
%TD*%
D18*
%TO.C,J1*%
X79712500Y-82550000D03*
D19*
X79712500Y-80010000D03*
X79712500Y-77470000D03*
X79712500Y-74930000D03*
%TD*%
D11*
%TO.C,C4*%
X54292500Y-103465000D03*
X54292500Y-98465000D03*
%TD*%
%TO.C,C3*%
X54292500Y-95210000D03*
X54292500Y-90210000D03*
%TD*%
%TO.C,C2*%
X63182500Y-90210000D03*
X63182500Y-95210000D03*
%TD*%
%TO.C,C1*%
X77152500Y-95210000D03*
X77152500Y-90210000D03*
%TD*%
M02*
