%TF.GenerationSoftware,KiCad,Pcbnew,6.0.2-378541a8eb~116~ubuntu20.04.1*%
%TF.CreationDate,2022-03-08T10:00:38+01:00*%
%TF.ProjectId,contact-sensor,636f6e74-6163-4742-9d73-656e736f722e,0.1.1*%
%TF.SameCoordinates,Original*%
%TF.FileFunction,Soldermask,Bot*%
%TF.FilePolarity,Negative*%
%FSLAX46Y46*%
G04 Gerber Fmt 4.6, Leading zero omitted, Abs format (unit mm)*
G04 Created by KiCad (PCBNEW 6.0.2-378541a8eb~116~ubuntu20.04.1) date 2022-03-08 10:00:38*
%MOMM*%
%LPD*%
G01*
G04 APERTURE LIST*
%ADD10R,1.700000X1.700000*%
%ADD11O,1.700000X1.700000*%
%ADD12C,3.200000*%
%ADD13C,2.000000*%
G04 APERTURE END LIST*
D10*
%TO.C,J2*%
X99130000Y-89530000D03*
D11*
X99130000Y-92070000D03*
%TD*%
D12*
%TO.C,REF1*%
X62967800Y-94270000D03*
%TD*%
D10*
%TO.C,J1*%
X46920000Y-99060000D03*
D11*
X46920000Y-96520000D03*
%TD*%
D12*
%TO.C,REF2*%
X82957600Y-94270000D03*
%TD*%
D13*
%TO.C,SW1*%
X50575000Y-96520000D03*
X57075000Y-96520000D03*
X57075000Y-92020000D03*
X50575000Y-92020000D03*
%TD*%
%TO.C,SW2*%
X69700000Y-96520000D03*
X76200000Y-96520000D03*
X76200000Y-92020000D03*
X69700000Y-92020000D03*
%TD*%
%TO.C,SW3*%
X95302000Y-96556000D03*
X88802000Y-96556000D03*
X88802000Y-92056000D03*
X95302000Y-92056000D03*
%TD*%
M02*
