M48
; DRILL file {KiCad 6.0.0} date So 8. ledna 2022, 01:51:44
; FORMAT={-:-/ absolute / inch / decimal}
; #@! TF.CreationDate,2022-01-08T01:51:44+01:00
; #@! TF.GenerationSoftware,Kicad,Pcbnew,6.0.0
; #@! TF.FileFunction,NonPlated,1,2,NPTH
FMAT,2
INCH
; #@! TA.AperFunction,NonPlated,NPTH,ComponentDrill
T1C0.1181
%
G90
G05
T1
X2.4Y-2.9
X2.4Y-4.3
X3.5Y-4.3
T0
M30
